{
  "title": "app mockDebugAndroidTest",
  "started": 1488856003334,
  "duration": 16,
  "results": {
    "05089ff80024dd4f": {
      "installFailed": false,
      "deviceDetails": {
        "model": "Nexus 5",
        "manufacturer": "LGE",
        "version": "6.0.1",
        "apiLevel": 23,
        "isEmulator": false
      },
      "testResults": [
        [
          {
            "className": "com.fantasyfang.googletrendapp.presentation.trend.GoogleTrendActivityTest",
            "methodName": "mainActivity_onLaunch_RecycleViewDisplayed"
          },
          {
            "status": "PASS",
            "duration": 0,
            "screenshots": [
              "/Users/fantasyfang/AndroidStudioProjects/GoogleTrendApp/app/build/spoon/mock/debug/image/05089ff80024dd4f/com.fantasyfang.googletrendapp.presentation.trend.GoogleTrendActivityTest/mainActivity_onLaunch_RecycleViewDisplayed/1488856017773_Initial_state.png"
            ],
            "files": [],
            "log": [
              {
                "mHeader": {
                  "mLogLevel": "INFO",
                  "mPid": 16583,
                  "mTid": 16597,
                  "mAppName": "?",
                  "mTag": "TestRunner",
                  "mTimestamp": {
                    "mMonth": 3,
                    "mDay": 7,
                    "mHour": 11,
                    "mMinute": 6,
                    "mSecond": 57,
                    "mMilli": 298
                  }
                },
                "mMessage": "started: mainActivity_onLaunch_RecycleViewDisplayed(com.fantasyfang.googletrendapp.presentation.trend.GoogleTrendActivityTest)"
              },
              {
                "mHeader": {
                  "mLogLevel": "INFO",
                  "mPid": 16583,
                  "mTid": 16583,
                  "mAppName": "?",
                  "mTag": "MonitoringInstrumentation",
                  "mTimestamp": {
                    "mMonth": 3,
                    "mDay": 7,
                    "mHour": 11,
                    "mMinute": 6,
                    "mSecond": 57,
                    "mMilli": 301
                  }
                },
                "mMessage": "Activities that are still in CREATED to STOPPED: 0"
              },
              {
                "mHeader": {
                  "mLogLevel": "DEBUG",
                  "mPid": 16583,
                  "mTid": 16597,
                  "mAppName": "?",
                  "mTag": "ActivityTestRule",
                  "mTimestamp": {
                    "mMonth": 3,
                    "mDay": 7,
                    "mHour": 11,
                    "mMinute": 6,
                    "mSecond": 57,
                    "mMilli": 302
                  }
                },
                "mMessage": "Launching activity com.fantasyfang.googletrendapp.presentation.trend.GoogleTrendActivity"
              },
              {
                "mHeader": {
                  "mLogLevel": "DEBUG",
                  "mPid": 16583,
                  "mTid": 16604,
                  "mAppName": "?",
                  "mTag": "MonitoringInstrumentation",
                  "mTimestamp": {
                    "mMonth": 3,
                    "mDay": 7,
                    "mHour": 11,
                    "mMinute": 6,
                    "mSecond": 57,
                    "mMilli": 304
                  }
                },
                "mMessage": "execStartActivity(context, ibinder, ibinder, activity, intent, int, bundle"
              },
              {
                "mHeader": {
                  "mLogLevel": "DEBUG",
                  "mPid": 16583,
                  "mTid": 16583,
                  "mAppName": "?",
                  "mTag": "LifecycleMonitor",
                  "mTimestamp": {
                    "mMonth": 3,
                    "mDay": 7,
                    "mHour": 11,
                    "mMinute": 6,
                    "mSecond": 57,
                    "mMilli": 361
                  }
                },
                "mMessage": "Lifecycle status change: com.fantasyfang.googletrendapp.presentation.trend.GoogleTrendActivity@e9d6e11 in: PRE_ON_CREATE"
              },
              {
                "mHeader": {
                  "mLogLevel": "WARN",
                  "mPid": 16583,
                  "mTid": 16583,
                  "mAppName": "?",
                  "mTag": "art",
                  "mTimestamp": {
                    "mMonth": 3,
                    "mDay": 7,
                    "mHour": 11,
                    "mMinute": 6,
                    "mSecond": 57,
                    "mMilli": 416
                  }
                },
                "mMessage": "Before Android 4.1, method android.graphics.PorterDuffColorFilter android.support.graphics.drawable.VectorDrawableCompat.updateTintFilter(android.graphics.PorterDuffColorFilter, android.content.res.ColorStateList, android.graphics.PorterDuff$Mode) would have incorrectly overridden the package-private method in android.graphics.drawable.Drawable"
              },
              {
                "mHeader": {
                  "mLogLevel": "DEBUG",
                  "mPid": 16583,
                  "mTid": 16583,
                  "mAppName": "?",
                  "mTag": "LifecycleMonitor",
                  "mTimestamp": {
                    "mMonth": 3,
                    "mDay": 7,
                    "mHour": 11,
                    "mMinute": 6,
                    "mSecond": 57,
                    "mMilli": 452
                  }
                },
                "mMessage": "Lifecycle status change: com.fantasyfang.googletrendapp.presentation.trend.GoogleTrendActivity@e9d6e11 in: CREATED"
              },
              {
                "mHeader": {
                  "mLogLevel": "DEBUG",
                  "mPid": 16583,
                  "mTid": 16583,
                  "mAppName": "?",
                  "mTag": "LifecycleMonitor",
                  "mTimestamp": {
                    "mMonth": 3,
                    "mDay": 7,
                    "mHour": 11,
                    "mMinute": 6,
                    "mSecond": 57,
                    "mMilli": 459
                  }
                },
                "mMessage": "Lifecycle status change: com.fantasyfang.googletrendapp.presentation.trend.GoogleTrendActivity@e9d6e11 in: STARTED"
              },
              {
                "mHeader": {
                  "mLogLevel": "DEBUG",
                  "mPid": 16583,
                  "mTid": 16583,
                  "mAppName": "?",
                  "mTag": "LifecycleMonitor",
                  "mTimestamp": {
                    "mMonth": 3,
                    "mDay": 7,
                    "mHour": 11,
                    "mMinute": 6,
                    "mSecond": 57,
                    "mMilli": 460
                  }
                },
                "mMessage": "Lifecycle status change: com.fantasyfang.googletrendapp.presentation.trend.GoogleTrendActivity@e9d6e11 in: RESUMED"
              },
              {
                "mHeader": {
                  "mLogLevel": "DEBUG",
                  "mPid": 16583,
                  "mTid": 16615,
                  "mAppName": "?",
                  "mTag": "GoogleTrendActivity",
                  "mTimestamp": {
                    "mMonth": 3,
                    "mDay": 7,
                    "mHour": 11,
                    "mMinute": 6,
                    "mSecond": 57,
                    "mMilli": 460
                  }
                },
                "mMessage": "showLoading"
              },
              {
                "mHeader": {
                  "mLogLevel": "DEBUG",
                  "mPid": 16583,
                  "mTid": 16615,
                  "mAppName": "?",
                  "mTag": "GoogleTrendActivity",
                  "mTimestamp": {
                    "mMonth": 3,
                    "mDay": 7,
                    "mHour": 11,
                    "mMinute": 6,
                    "mSecond": 57,
                    "mMilli": 461
                  }
                },
                "mMessage": "hideLoading"
              },
              {
                "mHeader": {
                  "mLogLevel": "DEBUG",
                  "mPid": 16583,
                  "mTid": 16616,
                  "mAppName": "?",
                  "mTag": "OpenGLRenderer",
                  "mTimestamp": {
                    "mMonth": 3,
                    "mDay": 7,
                    "mHour": 11,
                    "mMinute": 6,
                    "mSecond": 57,
                    "mMilli": 465
                  }
                },
                "mMessage": "Use EGL_SWAP_BEHAVIOR_PRESERVED: true"
              },
              {
                "mHeader": {
                  "mLogLevel": "DEBUG",
                  "mPid": 16583,
                  "mTid": 16583,
                  "mAppName": "?",
                  "mTag": "GoogleTrendPresenter",
                  "mTimestamp": {
                    "mMonth": 3,
                    "mDay": 7,
                    "mHour": 11,
                    "mMinute": 6,
                    "mSecond": 57,
                    "mMilli": 475
                  }
                },
                "mMessage": " onNext"
              },
              {
                "mHeader": {
                  "mLogLevel": "DEBUG",
                  "mPid": 16583,
                  "mTid": 16583,
                  "mAppName": "?",
                  "mTag": "GoogleTrendActivity",
                  "mTimestamp": {
                    "mMonth": 3,
                    "mDay": 7,
                    "mHour": 11,
                    "mMinute": 6,
                    "mSecond": 57,
                    "mMilli": 476
                  }
                },
                "mMessage": "showTrendResult"
              },
              {
                "mHeader": {
                  "mLogLevel": "DEBUG",
                  "mPid": 16583,
                  "mTid": 16583,
                  "mAppName": "?",
                  "mTag": "GoogleTrendPresenter",
                  "mTimestamp": {
                    "mMonth": 3,
                    "mDay": 7,
                    "mHour": 11,
                    "mMinute": 6,
                    "mSecond": 57,
                    "mMilli": 476
                  }
                },
                "mMessage": " onComplete"
              },
              {
                "mHeader": {
                  "mLogLevel": "INFO",
                  "mPid": 16583,
                  "mTid": 16616,
                  "mAppName": "?",
                  "mTag": "Adreno-EGL",
                  "mTimestamp": {
                    "mMonth": 3,
                    "mDay": 7,
                    "mHour": 11,
                    "mMinute": 6,
                    "mSecond": 57,
                    "mMilli": 502
                  }
                },
                "mMessage": "\u003cqeglDrvAPI_eglInitialize:379\u003e: QUALCOMM Build: 10/21/15, 369a2ea, I96aee987eb"
              },
              {
                "mHeader": {
                  "mLogLevel": "INFO",
                  "mPid": 16583,
                  "mTid": 16616,
                  "mAppName": "?",
                  "mTag": "OpenGLRenderer",
                  "mTimestamp": {
                    "mMonth": 3,
                    "mDay": 7,
                    "mHour": 11,
                    "mMinute": 6,
                    "mSecond": 57,
                    "mMilli": 503
                  }
                },
                "mMessage": "Initialized EGL, version 1.4"
              },
              {
                "mHeader": {
                  "mLogLevel": "DEBUG",
                  "mPid": 16583,
                  "mTid": 16583,
                  "mAppName": "?",
                  "mTag": "FlipPageView",
                  "mTimestamp": {
                    "mMonth": 3,
                    "mDay": 7,
                    "mHour": 11,
                    "mMinute": 6,
                    "mSecond": 57,
                    "mMilli": 534
                  }
                },
                "mMessage": "flipSpeed:1000flipDirectionType:0"
              },
              {
                "mHeader": {
                  "mLogLevel": "DEBUG",
                  "mPid": 16583,
                  "mTid": 16583,
                  "mAppName": "?",
                  "mTag": "GoogleTrendAdapter",
                  "mTimestamp": {
                    "mMonth": 3,
                    "mDay": 7,
                    "mHour": 11,
                    "mMinute": 6,
                    "mSecond": 57,
                    "mMilli": 538
                  }
                },
                "mMessage": "holder.flipPageView:com.fantasyfang.pagefilptypedtextviewr.FlipPageView{4bd306b V.E...C.. ......I. 0,0-0,0 #7f0c0067 app:id/flipPageView}"
              },
              {
                "mHeader": {
                  "mLogLevel": "DEBUG",
                  "mPid": 16583,
                  "mTid": 16583,
                  "mAppName": "?",
                  "mTag": "GoogleTrendAdapter",
                  "mTimestamp": {
                    "mMonth": 3,
                    "mDay": 7,
                    "mHour": 11,
                    "mMinute": 6,
                    "mSecond": 57,
                    "mMilli": 538
                  }
                },
                "mMessage": "rows 3 height:642"
              },
              {
                "mHeader": {
                  "mLogLevel": "DEBUG",
                  "mPid": 16583,
                  "mTid": 16583,
                  "mAppName": "?",
                  "mTag": "FlipPageView",
                  "mTimestamp": {
                    "mMonth": 3,
                    "mDay": 7,
                    "mHour": 11,
                    "mMinute": 6,
                    "mSecond": 57,
                    "mMilli": 538
                  }
                },
                "mMessage": "startAllAnimation"
              },
              {
                "mHeader": {
                  "mLogLevel": "DEBUG",
                  "mPid": 16583,
                  "mTid": 16583,
                  "mAppName": "?",
                  "mTag": "FlipPageView",
                  "mTimestamp": {
                    "mMonth": 3,
                    "mDay": 7,
                    "mHour": 11,
                    "mMinute": 6,
                    "mSecond": 57,
                    "mMilli": 539
                  }
                },
                "mMessage": "flipSpeed:1000flipDirectionType:0"
              },
              {
                "mHeader": {
                  "mLogLevel": "DEBUG",
                  "mPid": 16583,
                  "mTid": 16583,
                  "mAppName": "?",
                  "mTag": "GoogleTrendAdapter",
                  "mTimestamp": {
                    "mMonth": 3,
                    "mDay": 7,
                    "mHour": 11,
                    "mMinute": 6,
                    "mSecond": 57,
                    "mMilli": 541
                  }
                },
                "mMessage": "holder.flipPageView:com.fantasyfang.pagefilptypedtextviewr.FlipPageView{71067c8 V.E...C.. ......I. 0,0-0,0 #7f0c0067 app:id/flipPageView}"
              },
              {
                "mHeader": {
                  "mLogLevel": "DEBUG",
                  "mPid": 16583,
                  "mTid": 16583,
                  "mAppName": "?",
                  "mTag": "GoogleTrendAdapter",
                  "mTimestamp": {
                    "mMonth": 3,
                    "mDay": 7,
                    "mHour": 11,
                    "mMinute": 6,
                    "mSecond": 57,
                    "mMilli": 541
                  }
                },
                "mMessage": "rows 3 height:642"
              },
              {
                "mHeader": {
                  "mLogLevel": "DEBUG",
                  "mPid": 16583,
                  "mTid": 16583,
                  "mAppName": "?",
                  "mTag": "FlipPageView",
                  "mTimestamp": {
                    "mMonth": 3,
                    "mDay": 7,
                    "mHour": 11,
                    "mMinute": 6,
                    "mSecond": 57,
                    "mMilli": 541
                  }
                },
                "mMessage": "startAllAnimation"
              },
              {
                "mHeader": {
                  "mLogLevel": "DEBUG",
                  "mPid": 16583,
                  "mTid": 16583,
                  "mAppName": "?",
                  "mTag": "FlipPageView",
                  "mTimestamp": {
                    "mMonth": 3,
                    "mDay": 7,
                    "mHour": 11,
                    "mMinute": 6,
                    "mSecond": 57,
                    "mMilli": 542
                  }
                },
                "mMessage": "flipSpeed:1000flipDirectionType:0"
              },
              {
                "mHeader": {
                  "mLogLevel": "DEBUG",
                  "mPid": 16583,
                  "mTid": 16583,
                  "mAppName": "?",
                  "mTag": "GoogleTrendAdapter",
                  "mTimestamp": {
                    "mMonth": 3,
                    "mDay": 7,
                    "mHour": 11,
                    "mMinute": 6,
                    "mSecond": 57,
                    "mMilli": 544
                  }
                },
                "mMessage": "holder.flipPageView:com.fantasyfang.pagefilptypedtextviewr.FlipPageView{e4b5061 V.E...C.. ......I. 0,0-0,0 #7f0c0067 app:id/flipPageView}"
              },
              {
                "mHeader": {
                  "mLogLevel": "DEBUG",
                  "mPid": 16583,
                  "mTid": 16583,
                  "mAppName": "?",
                  "mTag": "GoogleTrendAdapter",
                  "mTimestamp": {
                    "mMonth": 3,
                    "mDay": 7,
                    "mHour": 11,
                    "mMinute": 6,
                    "mSecond": 57,
                    "mMilli": 544
                  }
                },
                "mMessage": "rows 3 height:642"
              },
              {
                "mHeader": {
                  "mLogLevel": "DEBUG",
                  "mPid": 16583,
                  "mTid": 16583,
                  "mAppName": "?",
                  "mTag": "FlipPageView",
                  "mTimestamp": {
                    "mMonth": 3,
                    "mDay": 7,
                    "mHour": 11,
                    "mMinute": 6,
                    "mSecond": 57,
                    "mMilli": 544
                  }
                },
                "mMessage": "startAllAnimation"
              },
              {
                "mHeader": {
                  "mLogLevel": "DEBUG",
                  "mPid": 16583,
                  "mTid": 16583,
                  "mAppName": "?",
                  "mTag": "FlipPageView",
                  "mTimestamp": {
                    "mMonth": 3,
                    "mDay": 7,
                    "mHour": 11,
                    "mMinute": 6,
                    "mSecond": 57,
                    "mMilli": 545
                  }
                },
                "mMessage": "getSuggestedMinimumWidth():0 widthMeasureSpec1073742184"
              },
              {
                "mHeader": {
                  "mLogLevel": "DEBUG",
                  "mPid": 16583,
                  "mTid": 16583,
                  "mAppName": "?",
                  "mTag": "FlipPageView",
                  "mTimestamp": {
                    "mMonth": 3,
                    "mDay": 7,
                    "mHour": 11,
                    "mMinute": 6,
                    "mSecond": 57,
                    "mMilli": 545
                  }
                },
                "mMessage": "getSuggestedMinimumHeight():0 widthMeasureSpec1073742466"
              },
              {
                "mHeader": {
                  "mLogLevel": "DEBUG",
                  "mPid": 16583,
                  "mTid": 16583,
                  "mAppName": "?",
                  "mTag": "FlipPageView",
                  "mTimestamp": {
                    "mMonth": 3,
                    "mDay": 7,
                    "mHour": 11,
                    "mMinute": 6,
                    "mSecond": 57,
                    "mMilli": 545
                  }
                },
                "mMessage": "width:360"
              },
              {
                "mHeader": {
                  "mLogLevel": "DEBUG",
                  "mPid": 16583,
                  "mTid": 16583,
                  "mAppName": "?",
                  "mTag": "FlipPageView",
                  "mTimestamp": {
                    "mMonth": 3,
                    "mDay": 7,
                    "mHour": 11,
                    "mMinute": 6,
                    "mSecond": 57,
                    "mMilli": 545
                  }
                },
                "mMessage": "height:642"
              },
              {
                "mHeader": {
                  "mLogLevel": "DEBUG",
                  "mPid": 16583,
                  "mTid": 16583,
                  "mAppName": "?",
                  "mTag": "FlipPageView",
                  "mTimestamp": {
                    "mMonth": 3,
                    "mDay": 7,
                    "mHour": 11,
                    "mMinute": 6,
                    "mSecond": 57,
                    "mMilli": 545
                  }
                },
                "mMessage": "getSuggestedMinimumWidth():0 widthMeasureSpec1073742184"
              },
              {
                "mHeader": {
                  "mLogLevel": "DEBUG",
                  "mPid": 16583,
                  "mTid": 16583,
                  "mAppName": "?",
                  "mTag": "FlipPageView",
                  "mTimestamp": {
                    "mMonth": 3,
                    "mDay": 7,
                    "mHour": 11,
                    "mMinute": 6,
                    "mSecond": 57,
                    "mMilli": 545
                  }
                },
                "mMessage": "getSuggestedMinimumHeight():0 widthMeasureSpec1073742466"
              },
              {
                "mHeader": {
                  "mLogLevel": "DEBUG",
                  "mPid": 16583,
                  "mTid": 16583,
                  "mAppName": "?",
                  "mTag": "FlipPageView",
                  "mTimestamp": {
                    "mMonth": 3,
                    "mDay": 7,
                    "mHour": 11,
                    "mMinute": 6,
                    "mSecond": 57,
                    "mMilli": 545
                  }
                },
                "mMessage": "width:360"
              },
              {
                "mHeader": {
                  "mLogLevel": "DEBUG",
                  "mPid": 16583,
                  "mTid": 16583,
                  "mAppName": "?",
                  "mTag": "FlipPageView",
                  "mTimestamp": {
                    "mMonth": 3,
                    "mDay": 7,
                    "mHour": 11,
                    "mMinute": 6,
                    "mSecond": 57,
                    "mMilli": 545
                  }
                },
                "mMessage": "height:642"
              },
              {
                "mHeader": {
                  "mLogLevel": "DEBUG",
                  "mPid": 16583,
                  "mTid": 16583,
                  "mAppName": "?",
                  "mTag": "FlipPageView",
                  "mTimestamp": {
                    "mMonth": 3,
                    "mDay": 7,
                    "mHour": 11,
                    "mMinute": 6,
                    "mSecond": 57,
                    "mMilli": 546
                  }
                },
                "mMessage": "getSuggestedMinimumWidth():0 widthMeasureSpec1073742184"
              },
              {
                "mHeader": {
                  "mLogLevel": "DEBUG",
                  "mPid": 16583,
                  "mTid": 16583,
                  "mAppName": "?",
                  "mTag": "FlipPageView",
                  "mTimestamp": {
                    "mMonth": 3,
                    "mDay": 7,
                    "mHour": 11,
                    "mMinute": 6,
                    "mSecond": 57,
                    "mMilli": 546
                  }
                },
                "mMessage": "getSuggestedMinimumHeight():0 widthMeasureSpec1073742466"
              },
              {
                "mHeader": {
                  "mLogLevel": "DEBUG",
                  "mPid": 16583,
                  "mTid": 16583,
                  "mAppName": "?",
                  "mTag": "FlipPageView",
                  "mTimestamp": {
                    "mMonth": 3,
                    "mDay": 7,
                    "mHour": 11,
                    "mMinute": 6,
                    "mSecond": 57,
                    "mMilli": 546
                  }
                },
                "mMessage": "width:360"
              },
              {
                "mHeader": {
                  "mLogLevel": "DEBUG",
                  "mPid": 16583,
                  "mTid": 16583,
                  "mAppName": "?",
                  "mTag": "FlipPageView",
                  "mTimestamp": {
                    "mMonth": 3,
                    "mDay": 7,
                    "mHour": 11,
                    "mMinute": 6,
                    "mSecond": 57,
                    "mMilli": 546
                  }
                },
                "mMessage": "height:642"
              },
              {
                "mHeader": {
                  "mLogLevel": "DEBUG",
                  "mPid": 16583,
                  "mTid": 16583,
                  "mAppName": "?",
                  "mTag": "FlipPageView",
                  "mTimestamp": {
                    "mMonth": 3,
                    "mDay": 7,
                    "mHour": 11,
                    "mMinute": 6,
                    "mSecond": 57,
                    "mMilli": 547
                  }
                },
                "mMessage": "flipSpeed:1000flipDirectionType:0"
              },
              {
                "mHeader": {
                  "mLogLevel": "DEBUG",
                  "mPid": 16583,
                  "mTid": 16583,
                  "mAppName": "?",
                  "mTag": "GoogleTrendAdapter",
                  "mTimestamp": {
                    "mMonth": 3,
                    "mDay": 7,
                    "mHour": 11,
                    "mMinute": 6,
                    "mSecond": 57,
                    "mMilli": 550
                  }
                },
                "mMessage": "holder.flipPageView:com.fantasyfang.pagefilptypedtextviewr.FlipPageView{3c269d3 V.E...C.. ......I. 0,0-0,0 #7f0c0067 app:id/flipPageView}"
              },
              {
                "mHeader": {
                  "mLogLevel": "DEBUG",
                  "mPid": 16583,
                  "mTid": 16583,
                  "mAppName": "?",
                  "mTag": "GoogleTrendAdapter",
                  "mTimestamp": {
                    "mMonth": 3,
                    "mDay": 7,
                    "mHour": 11,
                    "mMinute": 6,
                    "mSecond": 57,
                    "mMilli": 550
                  }
                },
                "mMessage": "rows 3 height:642"
              },
              {
                "mHeader": {
                  "mLogLevel": "DEBUG",
                  "mPid": 16583,
                  "mTid": 16583,
                  "mAppName": "?",
                  "mTag": "FlipPageView",
                  "mTimestamp": {
                    "mMonth": 3,
                    "mDay": 7,
                    "mHour": 11,
                    "mMinute": 6,
                    "mSecond": 57,
                    "mMilli": 550
                  }
                },
                "mMessage": "startAllAnimation"
              },
              {
                "mHeader": {
                  "mLogLevel": "DEBUG",
                  "mPid": 16583,
                  "mTid": 16583,
                  "mAppName": "?",
                  "mTag": "FlipPageView",
                  "mTimestamp": {
                    "mMonth": 3,
                    "mDay": 7,
                    "mHour": 11,
                    "mMinute": 6,
                    "mSecond": 57,
                    "mMilli": 551
                  }
                },
                "mMessage": "flipSpeed:1000flipDirectionType:0"
              },
              {
                "mHeader": {
                  "mLogLevel": "DEBUG",
                  "mPid": 16583,
                  "mTid": 16583,
                  "mAppName": "?",
                  "mTag": "GoogleTrendAdapter",
                  "mTimestamp": {
                    "mMonth": 3,
                    "mDay": 7,
                    "mHour": 11,
                    "mMinute": 6,
                    "mSecond": 57,
                    "mMilli": 554
                  }
                },
                "mMessage": "holder.flipPageView:com.fantasyfang.pagefilptypedtextviewr.FlipPageView{2378910 V.E...C.. ......I. 0,0-0,0 #7f0c0067 app:id/flipPageView}"
              },
              {
                "mHeader": {
                  "mLogLevel": "DEBUG",
                  "mPid": 16583,
                  "mTid": 16583,
                  "mAppName": "?",
                  "mTag": "GoogleTrendAdapter",
                  "mTimestamp": {
                    "mMonth": 3,
                    "mDay": 7,
                    "mHour": 11,
                    "mMinute": 6,
                    "mSecond": 57,
                    "mMilli": 554
                  }
                },
                "mMessage": "rows 3 height:642"
              },
              {
                "mHeader": {
                  "mLogLevel": "DEBUG",
                  "mPid": 16583,
                  "mTid": 16583,
                  "mAppName": "?",
                  "mTag": "FlipPageView",
                  "mTimestamp": {
                    "mMonth": 3,
                    "mDay": 7,
                    "mHour": 11,
                    "mMinute": 6,
                    "mSecond": 57,
                    "mMilli": 554
                  }
                },
                "mMessage": "startAllAnimation"
              },
              {
                "mHeader": {
                  "mLogLevel": "DEBUG",
                  "mPid": 16583,
                  "mTid": 16583,
                  "mAppName": "?",
                  "mTag": "FlipPageView",
                  "mTimestamp": {
                    "mMonth": 3,
                    "mDay": 7,
                    "mHour": 11,
                    "mMinute": 6,
                    "mSecond": 57,
                    "mMilli": 554
                  }
                },
                "mMessage": "flipSpeed:1000flipDirectionType:0"
              },
              {
                "mHeader": {
                  "mLogLevel": "DEBUG",
                  "mPid": 16583,
                  "mTid": 16583,
                  "mAppName": "?",
                  "mTag": "GoogleTrendAdapter",
                  "mTimestamp": {
                    "mMonth": 3,
                    "mDay": 7,
                    "mHour": 11,
                    "mMinute": 6,
                    "mSecond": 57,
                    "mMilli": 556
                  }
                },
                "mMessage": "holder.flipPageView:com.fantasyfang.pagefilptypedtextviewr.FlipPageView{fc86c09 V.E...C.. ......I. 0,0-0,0 #7f0c0067 app:id/flipPageView}"
              },
              {
                "mHeader": {
                  "mLogLevel": "DEBUG",
                  "mPid": 16583,
                  "mTid": 16583,
                  "mAppName": "?",
                  "mTag": "GoogleTrendAdapter",
                  "mTimestamp": {
                    "mMonth": 3,
                    "mDay": 7,
                    "mHour": 11,
                    "mMinute": 6,
                    "mSecond": 57,
                    "mMilli": 556
                  }
                },
                "mMessage": "rows 3 height:642"
              },
              {
                "mHeader": {
                  "mLogLevel": "DEBUG",
                  "mPid": 16583,
                  "mTid": 16583,
                  "mAppName": "?",
                  "mTag": "FlipPageView",
                  "mTimestamp": {
                    "mMonth": 3,
                    "mDay": 7,
                    "mHour": 11,
                    "mMinute": 6,
                    "mSecond": 57,
                    "mMilli": 556
                  }
                },
                "mMessage": "startAllAnimation"
              },
              {
                "mHeader": {
                  "mLogLevel": "DEBUG",
                  "mPid": 16583,
                  "mTid": 16583,
                  "mAppName": "?",
                  "mTag": "FlipPageView",
                  "mTimestamp": {
                    "mMonth": 3,
                    "mDay": 7,
                    "mHour": 11,
                    "mMinute": 6,
                    "mSecond": 57,
                    "mMilli": 557
                  }
                },
                "mMessage": "getSuggestedMinimumWidth():0 widthMeasureSpec1073742184"
              },
              {
                "mHeader": {
                  "mLogLevel": "DEBUG",
                  "mPid": 16583,
                  "mTid": 16583,
                  "mAppName": "?",
                  "mTag": "FlipPageView",
                  "mTimestamp": {
                    "mMonth": 3,
                    "mDay": 7,
                    "mHour": 11,
                    "mMinute": 6,
                    "mSecond": 57,
                    "mMilli": 557
                  }
                },
                "mMessage": "getSuggestedMinimumHeight():0 widthMeasureSpec1073742466"
              },
              {
                "mHeader": {
                  "mLogLevel": "DEBUG",
                  "mPid": 16583,
                  "mTid": 16583,
                  "mAppName": "?",
                  "mTag": "FlipPageView",
                  "mTimestamp": {
                    "mMonth": 3,
                    "mDay": 7,
                    "mHour": 11,
                    "mMinute": 6,
                    "mSecond": 57,
                    "mMilli": 557
                  }
                },
                "mMessage": "width:360"
              },
              {
                "mHeader": {
                  "mLogLevel": "DEBUG",
                  "mPid": 16583,
                  "mTid": 16583,
                  "mAppName": "?",
                  "mTag": "FlipPageView",
                  "mTimestamp": {
                    "mMonth": 3,
                    "mDay": 7,
                    "mHour": 11,
                    "mMinute": 6,
                    "mSecond": 57,
                    "mMilli": 557
                  }
                },
                "mMessage": "height:642"
              },
              {
                "mHeader": {
                  "mLogLevel": "DEBUG",
                  "mPid": 16583,
                  "mTid": 16583,
                  "mAppName": "?",
                  "mTag": "FlipPageView",
                  "mTimestamp": {
                    "mMonth": 3,
                    "mDay": 7,
                    "mHour": 11,
                    "mMinute": 6,
                    "mSecond": 57,
                    "mMilli": 557
                  }
                },
                "mMessage": "getSuggestedMinimumWidth():0 widthMeasureSpec1073742184"
              },
              {
                "mHeader": {
                  "mLogLevel": "DEBUG",
                  "mPid": 16583,
                  "mTid": 16583,
                  "mAppName": "?",
                  "mTag": "FlipPageView",
                  "mTimestamp": {
                    "mMonth": 3,
                    "mDay": 7,
                    "mHour": 11,
                    "mMinute": 6,
                    "mSecond": 57,
                    "mMilli": 557
                  }
                },
                "mMessage": "getSuggestedMinimumHeight():0 widthMeasureSpec1073742466"
              },
              {
                "mHeader": {
                  "mLogLevel": "DEBUG",
                  "mPid": 16583,
                  "mTid": 16583,
                  "mAppName": "?",
                  "mTag": "FlipPageView",
                  "mTimestamp": {
                    "mMonth": 3,
                    "mDay": 7,
                    "mHour": 11,
                    "mMinute": 6,
                    "mSecond": 57,
                    "mMilli": 557
                  }
                },
                "mMessage": "width:360"
              },
              {
                "mHeader": {
                  "mLogLevel": "DEBUG",
                  "mPid": 16583,
                  "mTid": 16583,
                  "mAppName": "?",
                  "mTag": "FlipPageView",
                  "mTimestamp": {
                    "mMonth": 3,
                    "mDay": 7,
                    "mHour": 11,
                    "mMinute": 6,
                    "mSecond": 57,
                    "mMilli": 557
                  }
                },
                "mMessage": "height:642"
              },
              {
                "mHeader": {
                  "mLogLevel": "DEBUG",
                  "mPid": 16583,
                  "mTid": 16583,
                  "mAppName": "?",
                  "mTag": "FlipPageView",
                  "mTimestamp": {
                    "mMonth": 3,
                    "mDay": 7,
                    "mHour": 11,
                    "mMinute": 6,
                    "mSecond": 57,
                    "mMilli": 558
                  }
                },
                "mMessage": "getSuggestedMinimumWidth():0 widthMeasureSpec1073742184"
              },
              {
                "mHeader": {
                  "mLogLevel": "DEBUG",
                  "mPid": 16583,
                  "mTid": 16583,
                  "mAppName": "?",
                  "mTag": "FlipPageView",
                  "mTimestamp": {
                    "mMonth": 3,
                    "mDay": 7,
                    "mHour": 11,
                    "mMinute": 6,
                    "mSecond": 57,
                    "mMilli": 558
                  }
                },
                "mMessage": "getSuggestedMinimumHeight():0 widthMeasureSpec1073742466"
              },
              {
                "mHeader": {
                  "mLogLevel": "DEBUG",
                  "mPid": 16583,
                  "mTid": 16583,
                  "mAppName": "?",
                  "mTag": "FlipPageView",
                  "mTimestamp": {
                    "mMonth": 3,
                    "mDay": 7,
                    "mHour": 11,
                    "mMinute": 6,
                    "mSecond": 57,
                    "mMilli": 558
                  }
                },
                "mMessage": "width:360"
              },
              {
                "mHeader": {
                  "mLogLevel": "DEBUG",
                  "mPid": 16583,
                  "mTid": 16583,
                  "mAppName": "?",
                  "mTag": "FlipPageView",
                  "mTimestamp": {
                    "mMonth": 3,
                    "mDay": 7,
                    "mHour": 11,
                    "mMinute": 6,
                    "mSecond": 57,
                    "mMilli": 558
                  }
                },
                "mMessage": "height:642"
              },
              {
                "mHeader": {
                  "mLogLevel": "DEBUG",
                  "mPid": 16583,
                  "mTid": 16583,
                  "mAppName": "?",
                  "mTag": "FlipPageView",
                  "mTimestamp": {
                    "mMonth": 3,
                    "mDay": 7,
                    "mHour": 11,
                    "mMinute": 6,
                    "mSecond": 57,
                    "mMilli": 560
                  }
                },
                "mMessage": "flipSpeed:1000flipDirectionType:0"
              },
              {
                "mHeader": {
                  "mLogLevel": "DEBUG",
                  "mPid": 16583,
                  "mTid": 16583,
                  "mAppName": "?",
                  "mTag": "GoogleTrendAdapter",
                  "mTimestamp": {
                    "mMonth": 3,
                    "mDay": 7,
                    "mHour": 11,
                    "mMinute": 6,
                    "mSecond": 57,
                    "mMilli": 562
                  }
                },
                "mMessage": "holder.flipPageView:com.fantasyfang.pagefilptypedtextviewr.FlipPageView{f08d23b V.E...C.. ......I. 0,0-0,0 #7f0c0067 app:id/flipPageView}"
              },
              {
                "mHeader": {
                  "mLogLevel": "DEBUG",
                  "mPid": 16583,
                  "mTid": 16583,
                  "mAppName": "?",
                  "mTag": "GoogleTrendAdapter",
                  "mTimestamp": {
                    "mMonth": 3,
                    "mDay": 7,
                    "mHour": 11,
                    "mMinute": 6,
                    "mSecond": 57,
                    "mMilli": 562
                  }
                },
                "mMessage": "rows 3 height:642"
              },
              {
                "mHeader": {
                  "mLogLevel": "DEBUG",
                  "mPid": 16583,
                  "mTid": 16583,
                  "mAppName": "?",
                  "mTag": "FlipPageView",
                  "mTimestamp": {
                    "mMonth": 3,
                    "mDay": 7,
                    "mHour": 11,
                    "mMinute": 6,
                    "mSecond": 57,
                    "mMilli": 562
                  }
                },
                "mMessage": "startAllAnimation"
              },
              {
                "mHeader": {
                  "mLogLevel": "DEBUG",
                  "mPid": 16583,
                  "mTid": 16583,
                  "mAppName": "?",
                  "mTag": "FlipPageView",
                  "mTimestamp": {
                    "mMonth": 3,
                    "mDay": 7,
                    "mHour": 11,
                    "mMinute": 6,
                    "mSecond": 57,
                    "mMilli": 563
                  }
                },
                "mMessage": "flipSpeed:1000flipDirectionType:0"
              },
              {
                "mHeader": {
                  "mLogLevel": "DEBUG",
                  "mPid": 16583,
                  "mTid": 16583,
                  "mAppName": "?",
                  "mTag": "GoogleTrendAdapter",
                  "mTimestamp": {
                    "mMonth": 3,
                    "mDay": 7,
                    "mHour": 11,
                    "mMinute": 6,
                    "mSecond": 57,
                    "mMilli": 566
                  }
                },
                "mMessage": "holder.flipPageView:com.fantasyfang.pagefilptypedtextviewr.FlipPageView{b71ad58 V.E...C.. ......I. 0,0-0,0 #7f0c0067 app:id/flipPageView}"
              },
              {
                "mHeader": {
                  "mLogLevel": "DEBUG",
                  "mPid": 16583,
                  "mTid": 16583,
                  "mAppName": "?",
                  "mTag": "GoogleTrendAdapter",
                  "mTimestamp": {
                    "mMonth": 3,
                    "mDay": 7,
                    "mHour": 11,
                    "mMinute": 6,
                    "mSecond": 57,
                    "mMilli": 566
                  }
                },
                "mMessage": "rows 3 height:642"
              },
              {
                "mHeader": {
                  "mLogLevel": "DEBUG",
                  "mPid": 16583,
                  "mTid": 16583,
                  "mAppName": "?",
                  "mTag": "FlipPageView",
                  "mTimestamp": {
                    "mMonth": 3,
                    "mDay": 7,
                    "mHour": 11,
                    "mMinute": 6,
                    "mSecond": 57,
                    "mMilli": 566
                  }
                },
                "mMessage": "startAllAnimation"
              },
              {
                "mHeader": {
                  "mLogLevel": "DEBUG",
                  "mPid": 16583,
                  "mTid": 16583,
                  "mAppName": "?",
                  "mTag": "FlipPageView",
                  "mTimestamp": {
                    "mMonth": 3,
                    "mDay": 7,
                    "mHour": 11,
                    "mMinute": 6,
                    "mSecond": 57,
                    "mMilli": 566
                  }
                },
                "mMessage": "flipSpeed:1000flipDirectionType:0"
              },
              {
                "mHeader": {
                  "mLogLevel": "DEBUG",
                  "mPid": 16583,
                  "mTid": 16583,
                  "mAppName": "?",
                  "mTag": "GoogleTrendAdapter",
                  "mTimestamp": {
                    "mMonth": 3,
                    "mDay": 7,
                    "mHour": 11,
                    "mMinute": 6,
                    "mSecond": 57,
                    "mMilli": 571
                  }
                },
                "mMessage": "holder.flipPageView:com.fantasyfang.pagefilptypedtextviewr.FlipPageView{c47ceb1 V.E...C.. ......I. 0,0-0,0 #7f0c0067 app:id/flipPageView}"
              },
              {
                "mHeader": {
                  "mLogLevel": "DEBUG",
                  "mPid": 16583,
                  "mTid": 16583,
                  "mAppName": "?",
                  "mTag": "GoogleTrendAdapter",
                  "mTimestamp": {
                    "mMonth": 3,
                    "mDay": 7,
                    "mHour": 11,
                    "mMinute": 6,
                    "mSecond": 57,
                    "mMilli": 571
                  }
                },
                "mMessage": "rows 3 height:642"
              },
              {
                "mHeader": {
                  "mLogLevel": "DEBUG",
                  "mPid": 16583,
                  "mTid": 16583,
                  "mAppName": "?",
                  "mTag": "FlipPageView",
                  "mTimestamp": {
                    "mMonth": 3,
                    "mDay": 7,
                    "mHour": 11,
                    "mMinute": 6,
                    "mSecond": 57,
                    "mMilli": 571
                  }
                },
                "mMessage": "startAllAnimation"
              },
              {
                "mHeader": {
                  "mLogLevel": "DEBUG",
                  "mPid": 16583,
                  "mTid": 16583,
                  "mAppName": "?",
                  "mTag": "FlipPageView",
                  "mTimestamp": {
                    "mMonth": 3,
                    "mDay": 7,
                    "mHour": 11,
                    "mMinute": 6,
                    "mSecond": 57,
                    "mMilli": 571
                  }
                },
                "mMessage": "getSuggestedMinimumWidth():0 widthMeasureSpec1073742184"
              },
              {
                "mHeader": {
                  "mLogLevel": "DEBUG",
                  "mPid": 16583,
                  "mTid": 16583,
                  "mAppName": "?",
                  "mTag": "FlipPageView",
                  "mTimestamp": {
                    "mMonth": 3,
                    "mDay": 7,
                    "mHour": 11,
                    "mMinute": 6,
                    "mSecond": 57,
                    "mMilli": 571
                  }
                },
                "mMessage": "getSuggestedMinimumHeight():0 widthMeasureSpec1073742466"
              },
              {
                "mHeader": {
                  "mLogLevel": "DEBUG",
                  "mPid": 16583,
                  "mTid": 16583,
                  "mAppName": "?",
                  "mTag": "FlipPageView",
                  "mTimestamp": {
                    "mMonth": 3,
                    "mDay": 7,
                    "mHour": 11,
                    "mMinute": 6,
                    "mSecond": 57,
                    "mMilli": 571
                  }
                },
                "mMessage": "width:360"
              },
              {
                "mHeader": {
                  "mLogLevel": "DEBUG",
                  "mPid": 16583,
                  "mTid": 16583,
                  "mAppName": "?",
                  "mTag": "FlipPageView",
                  "mTimestamp": {
                    "mMonth": 3,
                    "mDay": 7,
                    "mHour": 11,
                    "mMinute": 6,
                    "mSecond": 57,
                    "mMilli": 571
                  }
                },
                "mMessage": "height:642"
              },
              {
                "mHeader": {
                  "mLogLevel": "DEBUG",
                  "mPid": 16583,
                  "mTid": 16583,
                  "mAppName": "?",
                  "mTag": "FlipPageView",
                  "mTimestamp": {
                    "mMonth": 3,
                    "mDay": 7,
                    "mHour": 11,
                    "mMinute": 6,
                    "mSecond": 57,
                    "mMilli": 572
                  }
                },
                "mMessage": "getSuggestedMinimumWidth():0 widthMeasureSpec1073742184"
              },
              {
                "mHeader": {
                  "mLogLevel": "DEBUG",
                  "mPid": 16583,
                  "mTid": 16583,
                  "mAppName": "?",
                  "mTag": "FlipPageView",
                  "mTimestamp": {
                    "mMonth": 3,
                    "mDay": 7,
                    "mHour": 11,
                    "mMinute": 6,
                    "mSecond": 57,
                    "mMilli": 572
                  }
                },
                "mMessage": "getSuggestedMinimumHeight():0 widthMeasureSpec1073742466"
              },
              {
                "mHeader": {
                  "mLogLevel": "DEBUG",
                  "mPid": 16583,
                  "mTid": 16583,
                  "mAppName": "?",
                  "mTag": "FlipPageView",
                  "mTimestamp": {
                    "mMonth": 3,
                    "mDay": 7,
                    "mHour": 11,
                    "mMinute": 6,
                    "mSecond": 57,
                    "mMilli": 572
                  }
                },
                "mMessage": "width:360"
              },
              {
                "mHeader": {
                  "mLogLevel": "DEBUG",
                  "mPid": 16583,
                  "mTid": 16583,
                  "mAppName": "?",
                  "mTag": "FlipPageView",
                  "mTimestamp": {
                    "mMonth": 3,
                    "mDay": 7,
                    "mHour": 11,
                    "mMinute": 6,
                    "mSecond": 57,
                    "mMilli": 572
                  }
                },
                "mMessage": "height:642"
              },
              {
                "mHeader": {
                  "mLogLevel": "DEBUG",
                  "mPid": 16583,
                  "mTid": 16583,
                  "mAppName": "?",
                  "mTag": "FlipPageView",
                  "mTimestamp": {
                    "mMonth": 3,
                    "mDay": 7,
                    "mHour": 11,
                    "mMinute": 6,
                    "mSecond": 57,
                    "mMilli": 572
                  }
                },
                "mMessage": "getSuggestedMinimumWidth():0 widthMeasureSpec1073742184"
              },
              {
                "mHeader": {
                  "mLogLevel": "DEBUG",
                  "mPid": 16583,
                  "mTid": 16583,
                  "mAppName": "?",
                  "mTag": "FlipPageView",
                  "mTimestamp": {
                    "mMonth": 3,
                    "mDay": 7,
                    "mHour": 11,
                    "mMinute": 6,
                    "mSecond": 57,
                    "mMilli": 572
                  }
                },
                "mMessage": "getSuggestedMinimumHeight():0 widthMeasureSpec1073742466"
              },
              {
                "mHeader": {
                  "mLogLevel": "DEBUG",
                  "mPid": 16583,
                  "mTid": 16583,
                  "mAppName": "?",
                  "mTag": "FlipPageView",
                  "mTimestamp": {
                    "mMonth": 3,
                    "mDay": 7,
                    "mHour": 11,
                    "mMinute": 6,
                    "mSecond": 57,
                    "mMilli": 572
                  }
                },
                "mMessage": "width:360"
              },
              {
                "mHeader": {
                  "mLogLevel": "DEBUG",
                  "mPid": 16583,
                  "mTid": 16583,
                  "mAppName": "?",
                  "mTag": "FlipPageView",
                  "mTimestamp": {
                    "mMonth": 3,
                    "mDay": 7,
                    "mHour": 11,
                    "mMinute": 6,
                    "mSecond": 57,
                    "mMilli": 572
                  }
                },
                "mMessage": "height:642"
              },
              {
                "mHeader": {
                  "mLogLevel": "DEBUG",
                  "mPid": 16583,
                  "mTid": 16583,
                  "mAppName": "?",
                  "mTag": "FlipPageView",
                  "mTimestamp": {
                    "mMonth": 3,
                    "mDay": 7,
                    "mHour": 11,
                    "mMinute": 6,
                    "mSecond": 57,
                    "mMilli": 631
                  }
                },
                "mMessage": "getSuggestedMinimumWidth():0 widthMeasureSpec1073742184"
              },
              {
                "mHeader": {
                  "mLogLevel": "DEBUG",
                  "mPid": 16583,
                  "mTid": 16583,
                  "mAppName": "?",
                  "mTag": "FlipPageView",
                  "mTimestamp": {
                    "mMonth": 3,
                    "mDay": 7,
                    "mHour": 11,
                    "mMinute": 6,
                    "mSecond": 57,
                    "mMilli": 632
                  }
                },
                "mMessage": "getSuggestedMinimumHeight():0 widthMeasureSpec1073742466"
              },
              {
                "mHeader": {
                  "mLogLevel": "DEBUG",
                  "mPid": 16583,
                  "mTid": 16583,
                  "mAppName": "?",
                  "mTag": "FlipPageView",
                  "mTimestamp": {
                    "mMonth": 3,
                    "mDay": 7,
                    "mHour": 11,
                    "mMinute": 6,
                    "mSecond": 57,
                    "mMilli": 632
                  }
                },
                "mMessage": "width:360"
              },
              {
                "mHeader": {
                  "mLogLevel": "DEBUG",
                  "mPid": 16583,
                  "mTid": 16583,
                  "mAppName": "?",
                  "mTag": "FlipPageView",
                  "mTimestamp": {
                    "mMonth": 3,
                    "mDay": 7,
                    "mHour": 11,
                    "mMinute": 6,
                    "mSecond": 57,
                    "mMilli": 632
                  }
                },
                "mMessage": "height:642"
              },
              {
                "mHeader": {
                  "mLogLevel": "DEBUG",
                  "mPid": 16583,
                  "mTid": 16583,
                  "mAppName": "?",
                  "mTag": "FlipPageView",
                  "mTimestamp": {
                    "mMonth": 3,
                    "mDay": 7,
                    "mHour": 11,
                    "mMinute": 6,
                    "mSecond": 57,
                    "mMilli": 632
                  }
                },
                "mMessage": "getSuggestedMinimumWidth():0 widthMeasureSpec1073742184"
              },
              {
                "mHeader": {
                  "mLogLevel": "DEBUG",
                  "mPid": 16583,
                  "mTid": 16583,
                  "mAppName": "?",
                  "mTag": "FlipPageView",
                  "mTimestamp": {
                    "mMonth": 3,
                    "mDay": 7,
                    "mHour": 11,
                    "mMinute": 6,
                    "mSecond": 57,
                    "mMilli": 632
                  }
                },
                "mMessage": "getSuggestedMinimumHeight():0 widthMeasureSpec1073742466"
              },
              {
                "mHeader": {
                  "mLogLevel": "DEBUG",
                  "mPid": 16583,
                  "mTid": 16583,
                  "mAppName": "?",
                  "mTag": "FlipPageView",
                  "mTimestamp": {
                    "mMonth": 3,
                    "mDay": 7,
                    "mHour": 11,
                    "mMinute": 6,
                    "mSecond": 57,
                    "mMilli": 632
                  }
                },
                "mMessage": "width:360"
              },
              {
                "mHeader": {
                  "mLogLevel": "DEBUG",
                  "mPid": 16583,
                  "mTid": 16583,
                  "mAppName": "?",
                  "mTag": "FlipPageView",
                  "mTimestamp": {
                    "mMonth": 3,
                    "mDay": 7,
                    "mHour": 11,
                    "mMinute": 6,
                    "mSecond": 57,
                    "mMilli": 632
                  }
                },
                "mMessage": "height:642"
              },
              {
                "mHeader": {
                  "mLogLevel": "DEBUG",
                  "mPid": 16583,
                  "mTid": 16583,
                  "mAppName": "?",
                  "mTag": "FlipPageView",
                  "mTimestamp": {
                    "mMonth": 3,
                    "mDay": 7,
                    "mHour": 11,
                    "mMinute": 6,
                    "mSecond": 57,
                    "mMilli": 632
                  }
                },
                "mMessage": "getSuggestedMinimumWidth():0 widthMeasureSpec1073742184"
              },
              {
                "mHeader": {
                  "mLogLevel": "DEBUG",
                  "mPid": 16583,
                  "mTid": 16583,
                  "mAppName": "?",
                  "mTag": "FlipPageView",
                  "mTimestamp": {
                    "mMonth": 3,
                    "mDay": 7,
                    "mHour": 11,
                    "mMinute": 6,
                    "mSecond": 57,
                    "mMilli": 632
                  }
                },
                "mMessage": "getSuggestedMinimumHeight():0 widthMeasureSpec1073742466"
              },
              {
                "mHeader": {
                  "mLogLevel": "DEBUG",
                  "mPid": 16583,
                  "mTid": 16583,
                  "mAppName": "?",
                  "mTag": "FlipPageView",
                  "mTimestamp": {
                    "mMonth": 3,
                    "mDay": 7,
                    "mHour": 11,
                    "mMinute": 6,
                    "mSecond": 57,
                    "mMilli": 632
                  }
                },
                "mMessage": "width:360"
              },
              {
                "mHeader": {
                  "mLogLevel": "DEBUG",
                  "mPid": 16583,
                  "mTid": 16583,
                  "mAppName": "?",
                  "mTag": "FlipPageView",
                  "mTimestamp": {
                    "mMonth": 3,
                    "mDay": 7,
                    "mHour": 11,
                    "mMinute": 6,
                    "mSecond": 57,
                    "mMilli": 632
                  }
                },
                "mMessage": "height:642"
              },
              {
                "mHeader": {
                  "mLogLevel": "DEBUG",
                  "mPid": 16583,
                  "mTid": 16583,
                  "mAppName": "?",
                  "mTag": "FlipPageView",
                  "mTimestamp": {
                    "mMonth": 3,
                    "mDay": 7,
                    "mHour": 11,
                    "mMinute": 6,
                    "mSecond": 57,
                    "mMilli": 632
                  }
                },
                "mMessage": "getSuggestedMinimumWidth():0 widthMeasureSpec1073742184"
              },
              {
                "mHeader": {
                  "mLogLevel": "DEBUG",
                  "mPid": 16583,
                  "mTid": 16583,
                  "mAppName": "?",
                  "mTag": "FlipPageView",
                  "mTimestamp": {
                    "mMonth": 3,
                    "mDay": 7,
                    "mHour": 11,
                    "mMinute": 6,
                    "mSecond": 57,
                    "mMilli": 632
                  }
                },
                "mMessage": "getSuggestedMinimumHeight():0 widthMeasureSpec1073742466"
              },
              {
                "mHeader": {
                  "mLogLevel": "DEBUG",
                  "mPid": 16583,
                  "mTid": 16583,
                  "mAppName": "?",
                  "mTag": "FlipPageView",
                  "mTimestamp": {
                    "mMonth": 3,
                    "mDay": 7,
                    "mHour": 11,
                    "mMinute": 6,
                    "mSecond": 57,
                    "mMilli": 632
                  }
                },
                "mMessage": "width:360"
              },
              {
                "mHeader": {
                  "mLogLevel": "DEBUG",
                  "mPid": 16583,
                  "mTid": 16583,
                  "mAppName": "?",
                  "mTag": "FlipPageView",
                  "mTimestamp": {
                    "mMonth": 3,
                    "mDay": 7,
                    "mHour": 11,
                    "mMinute": 6,
                    "mSecond": 57,
                    "mMilli": 632
                  }
                },
                "mMessage": "height:642"
              },
              {
                "mHeader": {
                  "mLogLevel": "DEBUG",
                  "mPid": 16583,
                  "mTid": 16583,
                  "mAppName": "?",
                  "mTag": "FlipPageView",
                  "mTimestamp": {
                    "mMonth": 3,
                    "mDay": 7,
                    "mHour": 11,
                    "mMinute": 6,
                    "mSecond": 57,
                    "mMilli": 632
                  }
                },
                "mMessage": "getSuggestedMinimumWidth():0 widthMeasureSpec1073742184"
              },
              {
                "mHeader": {
                  "mLogLevel": "DEBUG",
                  "mPid": 16583,
                  "mTid": 16583,
                  "mAppName": "?",
                  "mTag": "FlipPageView",
                  "mTimestamp": {
                    "mMonth": 3,
                    "mDay": 7,
                    "mHour": 11,
                    "mMinute": 6,
                    "mSecond": 57,
                    "mMilli": 632
                  }
                },
                "mMessage": "getSuggestedMinimumHeight():0 widthMeasureSpec1073742466"
              },
              {
                "mHeader": {
                  "mLogLevel": "DEBUG",
                  "mPid": 16583,
                  "mTid": 16583,
                  "mAppName": "?",
                  "mTag": "FlipPageView",
                  "mTimestamp": {
                    "mMonth": 3,
                    "mDay": 7,
                    "mHour": 11,
                    "mMinute": 6,
                    "mSecond": 57,
                    "mMilli": 632
                  }
                },
                "mMessage": "width:360"
              },
              {
                "mHeader": {
                  "mLogLevel": "DEBUG",
                  "mPid": 16583,
                  "mTid": 16583,
                  "mAppName": "?",
                  "mTag": "FlipPageView",
                  "mTimestamp": {
                    "mMonth": 3,
                    "mDay": 7,
                    "mHour": 11,
                    "mMinute": 6,
                    "mSecond": 57,
                    "mMilli": 632
                  }
                },
                "mMessage": "height:642"
              },
              {
                "mHeader": {
                  "mLogLevel": "DEBUG",
                  "mPid": 16583,
                  "mTid": 16583,
                  "mAppName": "?",
                  "mTag": "FlipPageView",
                  "mTimestamp": {
                    "mMonth": 3,
                    "mDay": 7,
                    "mHour": 11,
                    "mMinute": 6,
                    "mSecond": 57,
                    "mMilli": 633
                  }
                },
                "mMessage": "getSuggestedMinimumWidth():0 widthMeasureSpec1073742184"
              },
              {
                "mHeader": {
                  "mLogLevel": "DEBUG",
                  "mPid": 16583,
                  "mTid": 16583,
                  "mAppName": "?",
                  "mTag": "FlipPageView",
                  "mTimestamp": {
                    "mMonth": 3,
                    "mDay": 7,
                    "mHour": 11,
                    "mMinute": 6,
                    "mSecond": 57,
                    "mMilli": 633
                  }
                },
                "mMessage": "getSuggestedMinimumHeight():0 widthMeasureSpec1073742466"
              },
              {
                "mHeader": {
                  "mLogLevel": "DEBUG",
                  "mPid": 16583,
                  "mTid": 16583,
                  "mAppName": "?",
                  "mTag": "FlipPageView",
                  "mTimestamp": {
                    "mMonth": 3,
                    "mDay": 7,
                    "mHour": 11,
                    "mMinute": 6,
                    "mSecond": 57,
                    "mMilli": 633
                  }
                },
                "mMessage": "width:360"
              },
              {
                "mHeader": {
                  "mLogLevel": "DEBUG",
                  "mPid": 16583,
                  "mTid": 16583,
                  "mAppName": "?",
                  "mTag": "FlipPageView",
                  "mTimestamp": {
                    "mMonth": 3,
                    "mDay": 7,
                    "mHour": 11,
                    "mMinute": 6,
                    "mSecond": 57,
                    "mMilli": 633
                  }
                },
                "mMessage": "height:642"
              },
              {
                "mHeader": {
                  "mLogLevel": "DEBUG",
                  "mPid": 16583,
                  "mTid": 16583,
                  "mAppName": "?",
                  "mTag": "FlipPageView",
                  "mTimestamp": {
                    "mMonth": 3,
                    "mDay": 7,
                    "mHour": 11,
                    "mMinute": 6,
                    "mSecond": 57,
                    "mMilli": 633
                  }
                },
                "mMessage": "getSuggestedMinimumWidth():0 widthMeasureSpec1073742184"
              },
              {
                "mHeader": {
                  "mLogLevel": "DEBUG",
                  "mPid": 16583,
                  "mTid": 16583,
                  "mAppName": "?",
                  "mTag": "FlipPageView",
                  "mTimestamp": {
                    "mMonth": 3,
                    "mDay": 7,
                    "mHour": 11,
                    "mMinute": 6,
                    "mSecond": 57,
                    "mMilli": 633
                  }
                },
                "mMessage": "getSuggestedMinimumHeight():0 widthMeasureSpec1073742466"
              },
              {
                "mHeader": {
                  "mLogLevel": "DEBUG",
                  "mPid": 16583,
                  "mTid": 16583,
                  "mAppName": "?",
                  "mTag": "FlipPageView",
                  "mTimestamp": {
                    "mMonth": 3,
                    "mDay": 7,
                    "mHour": 11,
                    "mMinute": 6,
                    "mSecond": 57,
                    "mMilli": 633
                  }
                },
                "mMessage": "width:360"
              },
              {
                "mHeader": {
                  "mLogLevel": "DEBUG",
                  "mPid": 16583,
                  "mTid": 16583,
                  "mAppName": "?",
                  "mTag": "FlipPageView",
                  "mTimestamp": {
                    "mMonth": 3,
                    "mDay": 7,
                    "mHour": 11,
                    "mMinute": 6,
                    "mSecond": 57,
                    "mMilli": 633
                  }
                },
                "mMessage": "height:642"
              },
              {
                "mHeader": {
                  "mLogLevel": "DEBUG",
                  "mPid": 16583,
                  "mTid": 16583,
                  "mAppName": "?",
                  "mTag": "FlipPageView",
                  "mTimestamp": {
                    "mMonth": 3,
                    "mDay": 7,
                    "mHour": 11,
                    "mMinute": 6,
                    "mSecond": 57,
                    "mMilli": 633
                  }
                },
                "mMessage": "getSuggestedMinimumWidth():0 widthMeasureSpec1073742184"
              },
              {
                "mHeader": {
                  "mLogLevel": "DEBUG",
                  "mPid": 16583,
                  "mTid": 16583,
                  "mAppName": "?",
                  "mTag": "FlipPageView",
                  "mTimestamp": {
                    "mMonth": 3,
                    "mDay": 7,
                    "mHour": 11,
                    "mMinute": 6,
                    "mSecond": 57,
                    "mMilli": 633
                  }
                },
                "mMessage": "getSuggestedMinimumHeight():0 widthMeasureSpec1073742466"
              },
              {
                "mHeader": {
                  "mLogLevel": "DEBUG",
                  "mPid": 16583,
                  "mTid": 16583,
                  "mAppName": "?",
                  "mTag": "FlipPageView",
                  "mTimestamp": {
                    "mMonth": 3,
                    "mDay": 7,
                    "mHour": 11,
                    "mMinute": 6,
                    "mSecond": 57,
                    "mMilli": 633
                  }
                },
                "mMessage": "width:360"
              },
              {
                "mHeader": {
                  "mLogLevel": "DEBUG",
                  "mPid": 16583,
                  "mTid": 16583,
                  "mAppName": "?",
                  "mTag": "FlipPageView",
                  "mTimestamp": {
                    "mMonth": 3,
                    "mDay": 7,
                    "mHour": 11,
                    "mMinute": 6,
                    "mSecond": 57,
                    "mMilli": 633
                  }
                },
                "mMessage": "height:642"
              },
              {
                "mHeader": {
                  "mLogLevel": "DEBUG",
                  "mPid": 16583,
                  "mTid": 16583,
                  "mAppName": "?",
                  "mTag": "FlipPageView",
                  "mTimestamp": {
                    "mMonth": 3,
                    "mDay": 7,
                    "mHour": 11,
                    "mMinute": 6,
                    "mSecond": 57,
                    "mMilli": 633
                  }
                },
                "mMessage": "getSuggestedMinimumWidth():0 widthMeasureSpec1073742184"
              },
              {
                "mHeader": {
                  "mLogLevel": "DEBUG",
                  "mPid": 16583,
                  "mTid": 16583,
                  "mAppName": "?",
                  "mTag": "FlipPageView",
                  "mTimestamp": {
                    "mMonth": 3,
                    "mDay": 7,
                    "mHour": 11,
                    "mMinute": 6,
                    "mSecond": 57,
                    "mMilli": 633
                  }
                },
                "mMessage": "getSuggestedMinimumHeight():0 widthMeasureSpec1073742466"
              },
              {
                "mHeader": {
                  "mLogLevel": "DEBUG",
                  "mPid": 16583,
                  "mTid": 16583,
                  "mAppName": "?",
                  "mTag": "FlipPageView",
                  "mTimestamp": {
                    "mMonth": 3,
                    "mDay": 7,
                    "mHour": 11,
                    "mMinute": 6,
                    "mSecond": 57,
                    "mMilli": 633
                  }
                },
                "mMessage": "width:360"
              },
              {
                "mHeader": {
                  "mLogLevel": "DEBUG",
                  "mPid": 16583,
                  "mTid": 16583,
                  "mAppName": "?",
                  "mTag": "FlipPageView",
                  "mTimestamp": {
                    "mMonth": 3,
                    "mDay": 7,
                    "mHour": 11,
                    "mMinute": 6,
                    "mSecond": 57,
                    "mMilli": 633
                  }
                },
                "mMessage": "height:642"
              },
              {
                "mHeader": {
                  "mLogLevel": "DEBUG",
                  "mPid": 16583,
                  "mTid": 16597,
                  "mAppName": "?",
                  "mTag": "Spoon",
                  "mTimestamp": {
                    "mMonth": 3,
                    "mDay": 7,
                    "mHour": 11,
                    "mMinute": 6,
                    "mSecond": 58,
                    "mMilli": 185
                  }
                },
                "mMessage": "Captured screenshot \u0027Initial_state\u0027."
              },
              {
                "mHeader": {
                  "mLogLevel": "DEBUG",
                  "mPid": 16583,
                  "mTid": 16597,
                  "mAppName": "?",
                  "mTag": "InputManagerEventInjectionStrategy",
                  "mTimestamp": {
                    "mMonth": 3,
                    "mDay": 7,
                    "mHour": 11,
                    "mMinute": 6,
                    "mSecond": 58,
                    "mMilli": 190
                  }
                },
                "mMessage": "Creating injection strategy with input manager."
              },
              {
                "mHeader": {
                  "mLogLevel": "INFO",
                  "mPid": 16583,
                  "mTid": 16597,
                  "mAppName": "?",
                  "mTag": "TestRunner",
                  "mTimestamp": {
                    "mMonth": 3,
                    "mDay": 7,
                    "mHour": 11,
                    "mMinute": 6,
                    "mSecond": 58,
                    "mMilli": 222
                  }
                },
                "mMessage": "finished: mainActivity_onLaunch_RecycleViewDisplayed(com.fantasyfang.googletrendapp.presentation.trend.GoogleTrendActivityTest)"
              }
            ]
          }
        ]
      ],
      "started": 1488856003335,
      "duration": 1,
      "exceptions": []
    }
  }
}